%YAML 1.1
%TAG !u! tag:unity3d.com,2011:
--- !u!114 &11400000
MonoBehaviour:
  m_ObjectHideFlags: 0
  m_CorrespondingSourceObject: {fileID: 0}
  m_PrefabInternal: {fileID: 0}
  m_GameObject: {fileID: 0}
  m_Enabled: 1
  m_EditorHideFlags: 0
  m_Script: {fileID: 11500000, guid: 3eafebde8a8b24c44bcd1159787828b4, type: 3}
  m_Name: Neutral
  m_EditorClassIdentifier: 
  Emotion: 0
  MaleMouth: {fileID: 21300010, guid: 7b6623c00737e134abe3d22d46a0413a, type: 3}
  MaleLeftEye: {fileID: 21300046, guid: effa188547410ce4a910d846f5d9938b, type: 3}
  MaleRightEye: {fileID: 21300064, guid: effa188547410ce4a910d846f5d9938b, type: 3}
  MaleLeftEyeMask: {fileID: 21300046, guid: 4c588ed1c0baedc42873591685682b15, type: 3}
  MaleRightEyeMask: {fileID: 21300064, guid: 4c588ed1c0baedc42873591685682b15, type: 3}
  MaleLeftEyebrow: {fileID: 0}
  MaleRightEyebrow: {fileID: 0}
  FemaleMouth: {fileID: 21300010, guid: dec7922200a7de5409f0f5f0d924b474, type: 3}
  FemaleLeftEye: {fileID: 21300010, guid: effa188547410ce4a910d846f5d9938b, type: 3}
  FemaleRightEye: {fileID: 21300028, guid: effa188547410ce4a910d846f5d9938b, type: 3}
  FemaleLeftEyeMask: {fileID: 21300010, guid: 4c588ed1c0baedc42873591685682b15, type: 3}
  FemaleRightEyeMask: {fileID: 21300028, guid: 4c588ed1c0baedc42873591685682b15, type: 3}
  FemaleLeftEyebrow: {fileID: 0}
  FemaleRightEyebrow: {fileID: 0}
